2020financialcontrib_OR.knit
…
Here is a fascinating bit. The interquartile ranges are so low for nearly all candidates. Yet, the number of plotted points are massive for the three leading candidates. They nearly come out to a straight line from the high number of individual contributions.

Perhaps things will be more precise if we look at the differences within the parties.

## # A tibble: 27 x 5
## # Groups:   party [2]
##    party      cand_nm                    sum_can mean_can     n
##    <chr>      <chr>                        <dbl>    <dbl> <int>
##  1 democrat   Bloomberg, Michael R.         272.     54.3     5
##  2 democrat   Gravel, Maurice Robert        421     210.      2
##  3 democrat   Delaney, John K.              500     125       4
##  4 democrat   Hickenlooper, John W.         891.    111.      8
##  5 democrat   Moulton, Seth                1581.     98.8    16
##  6 democrat   Patrick, Deval               2900     264.     11
##  7 democrat   Sestak, Joseph A. Jr.        5225     475      11
##  8 republican Weld, William Floyd (Bill)   5296.    147.     36
##  9 democrat   Swalwell, Eric Michael       5600    2800       2
## 10 democrat   Steyer, Tom                  5819.     95.4    61
## # ... with 17 more rows
…
